{
    "openapi": "3.0.0",
    "info": {
        "title": "Account",
        "version": "1.0.0",
        "description": "Account",
        "contact": {}
    },
    "servers": [
        {
            "url": "https://local.host/acc/api/v1",
            "description": "Account"
        }
    ],
    "paths": {
        "/accounts": {
            "get": {
                "tags": [],
                "operationId": "getAccounts",
                "parameters": [
                    {
                        "$ref": "#/components/parameters/Accept-Language"
                    },
                    {
                        "$ref": "#/components/parameters/X-B3-ParentSpanId"
                    },
                    {
                        "$ref": "#/components/parameters/X-B3-SpanId"
                    },
                    {
                        "$ref": "#/components/parameters/X-B3-TraceId"
                    },
                    {
                        "$ref": "#/components/parameters/X-B3-Sampled"
                    },
                    {
                        "$ref": "#/components/parameters/X-DEBUG-SESSION"
                    }
                ],
                "responses": {
                    "200": {
                        "description": "Success",
                        "content": {
                            "application/json": {
                                "schema": {
                                    "$ref": "#/components/schemas/Accounts"
                                }
                            }
                        }
                    }
                }
            }
        }
    },
    "components": {
        "parameters": {
            "Accept-Language": {
                "name": "Accept-Language",
                "in": "header",
                "description": "List of acceptable human languages for response. According to `RFC 7231`",
                "required": false,
                "schema": {
                    "type": "string"
                }
            },
            "X-B3-ParentSpanId": {
                "name": "X-B3-ParentSpanId",
                "in": "header",
                "description": "Zipkin Parent Span Id (e.g. `6adc7f8b31f35e91`)",
                "required": false,
                "schema": {
                    "type": "string"
                }
            },
            "X-B3-SpanId": {
                "name": "X-B3-SpanId",
                "in": "header",
                "description": "Zipkin Span Id (e.g. `0a7b5cd9c2568f7d`)",
                "required": false,
                "schema": {
                    "type": "string"
                }
            },
            "X-B3-TraceId": {
                "name": "X-B3-TraceId",
                "in": "header",
                "description": "Zipkin Trace Id (e.g. `0a7b5cd9c2568f7d6adc7f8b31f35e91`)",
                "required": false,
                "schema": {
                    "type": "string"
                }
            },
            "X-B3-Sampled": {
                "name": "X-B3-Sampled",
                "in": "header",
                "description": "Zipkin Sampled (e.g. `0`)",
                "required": false,
                "schema": {
                    "type": "string"
                }
            },
            "X-DEBUG-SESSION": {
                "name": "X-DEBUG-SESSION",
                "in": "header",
                "description": "X-DEBUG-SESSION",
                "required": false,
                "schema": {
                    "type": "string"
                }
            }
        },
        "requestBodies": {},
        "responses": {},
        "schemas": {
            "Account": {
                "type": "object",
                "title": "Account",
                "properties": {
                    "accountNo": {
                        "type": "string",
                        "title": "계좌번호"
                    }
                }
            },
            "Accounts": {
                "type": "array",
                "title": "계좌목록",
                "items": {
                    "$ref": "#/components/schemas/Account"
                }
            }
        }
    },
    "security": [],
    "tags": [],
    "x-knowis-solutionAcronym": "ACC",
    "x-knowis-apiName": "Account",
    "x-knowis-namespacePrefix": "v1",
    "x-knowis-ibmBpmIntegration": false,
    "x-knowis-ibmApiConnectIntegration": false,
    "x-knowis-language": "java",
    "x-knowis-supportedspec": "openApi3.0"
}